<?xml version="1.0" encoding="utf-8"?>
<!-- Generator: Adobe Illustrator 22.0.0, SVG Export Plug-In . SVG Version: 6.00 Build 0)  -->
<svg version="1.1" id="Layer_1" xmlns="http://www.w3.org/2000/svg" xmlns:xlink="http://www.w3.org/1999/xlink" x="0px" y="0px"
	 viewBox="0 0 216.3 71.2" style="enable-background:new 0 0 216.3 71.2;" xml:space="preserve">
<style type="text/css">
	.st0{fill:#EF4923;}
	.st1{fill:#2D2926;}
	.st2{fill:#F9F9F9;}
	.st3{fill:none;}
</style>
<polygon class="st0" points="87.3,22.9 86.5,23.8 86.5,25.7 84.4,25.7 84.4,18.6 86.5,18.6 86.5,21.5 88.7,18.6 91,18.6 88.8,21.5 
	91.2,25.7 88.8,25.7 "/>
<rect x="94.7" y="18.6" class="st0" width="2.2" height="7"/>
<rect x="100.3" y="18.6" class="st0" width="2.2" height="7"/>
<polygon class="st0" points="112.5,25.7 110.1,25.7 108.2,22.2 107.8,21.2 107.8,21.2 107.8,22.6 107.8,25.7 105.9,25.7 105.9,18.6 
	108.3,18.6 110.2,22.1 110.6,23.1 110.7,23.1 110.6,21.7 110.6,18.6 112.5,18.6 "/>
<polygon class="st0" points="122.6,20.3 120.4,20.3 120.4,25.7 118.2,25.7 118.2,20.3 116,20.3 116,18.6 122.6,18.6 "/>
<polygon class="st0" points="131.9,24 131.9,25.7 126.1,25.7 126.1,18.6 131.7,18.6 131.7,20.3 128.2,20.3 128.2,21.4 131,21.4 
	131,22.9 128.2,22.9 128.2,24 "/>
<rect x="135.3" y="18.6" class="st0" width="2.2" height="7"/>
<path class="st0" d="M146,18.8c0.5,0.2,1,0.5,1.4,0.9l-1.1,1.4c-0.3-0.3-0.6-0.6-0.9-0.7c-0.3-0.1-0.7-0.2-1.1-0.2
	c-0.3,0-0.5,0-0.7,0.1c-0.2,0.1-0.3,0.2-0.3,0.4c0,0.1,0.1,0.2,0.3,0.3c0.2,0.1,0.5,0.1,0.9,0.2c0.7,0.1,1.2,0.3,1.6,0.5
	s0.7,0.4,0.9,0.7c0.2,0.3,0.3,0.7,0.3,1.1c0,0.5-0.1,0.9-0.4,1.2c-0.3,0.3-0.6,0.6-1.1,0.8c-0.5,0.2-1,0.3-1.6,0.3
	c-0.8,0-1.5-0.1-2-0.3c-0.5-0.2-1-0.4-1.4-0.8l1-1.5c0.3,0.3,0.6,0.6,1,0.7c0.4,0.1,0.8,0.2,1.2,0.2c0.6,0,1-0.2,1-0.5
	c0-0.1-0.1-0.2-0.3-0.3c-0.2-0.1-0.5-0.2-0.9-0.2c-0.6-0.1-1-0.2-1.4-0.4c-0.4-0.1-0.7-0.4-1-0.7s-0.4-0.7-0.4-1.2
	c0-0.5,0.1-0.9,0.4-1.2c0.2-0.4,0.6-0.6,1.1-0.8c0.5-0.2,1-0.3,1.7-0.3C145,18.5,145.6,18.6,146,18.8"/>
<polygon class="st0" points="157.5,20.3 155.3,20.3 155.3,25.7 153.1,25.7 153.1,20.3 150.9,20.3 150.9,18.6 157.5,18.6 "/>
<path class="st0" d="M167.1,19.5c0.6,0.6,0.9,1.5,0.9,2.7c0,1.1-0.3,2-0.9,2.7c-0.6,0.6-1.5,1-2.6,1c-0.7,0-1.3-0.1-1.9-0.4
	c-0.5-0.3-0.9-0.7-1.2-1.2c-0.3-0.5-0.4-1.2-0.4-1.9c0-0.8,0.1-1.4,0.4-1.9c0.3-0.5,0.7-1,1.2-1.2c0.5-0.3,1.2-0.4,1.9-0.4
	C165.6,18.5,166.5,18.9,167.1,19.5 M164,16.6c0.2,0.2,0.3,0.4,0.3,0.7c0,0.3-0.1,0.5-0.3,0.7c-0.2,0.2-0.4,0.2-0.8,0.2
	c-0.3,0-0.6-0.1-0.7-0.2c-0.2-0.2-0.3-0.4-0.3-0.7c0-0.3,0.1-0.5,0.3-0.7c0.2-0.2,0.4-0.2,0.7-0.2C163.6,16.3,163.9,16.4,164,16.6
	 M163.5,20.7c-0.2,0.3-0.3,0.8-0.3,1.5c0,0.7,0.1,1.2,0.3,1.5c0.2,0.3,0.5,0.5,1,0.5c0.4,0,0.8-0.2,1-0.5c0.2-0.3,0.3-0.8,0.3-1.5
	c0-0.7-0.1-1.2-0.3-1.5c-0.2-0.3-0.5-0.5-1-0.5C164.1,20.2,163.8,20.4,163.5,20.7 M166.5,16.6c0.2,0.2,0.3,0.4,0.3,0.7
	c0,0.3-0.1,0.5-0.3,0.7c-0.2,0.2-0.4,0.2-0.8,0.2c-0.3,0-0.6-0.1-0.7-0.2c-0.2-0.2-0.3-0.4-0.3-0.7c0-0.3,0.1-0.5,0.3-0.7
	c0.2-0.2,0.4-0.2,0.7-0.2C166,16.3,166.3,16.4,166.5,16.6"/>
<polygon class="st0" points="178.1,18.6 178.1,25.7 175.9,25.7 175.9,22.9 173.6,22.9 173.6,25.7 171.5,25.7 171.5,18.6 173.6,18.6 
	173.6,21.3 175.9,21.3 175.9,18.6 "/>
<path class="st0" d="M187.6,19.5c0.6,0.6,0.9,1.5,0.9,2.7c0,1.1-0.3,2-0.9,2.7c-0.6,0.6-1.5,1-2.6,1c-0.7,0-1.3-0.1-1.9-0.4
	c-0.5-0.3-0.9-0.7-1.2-1.2c-0.3-0.5-0.4-1.2-0.4-1.9c0-0.8,0.1-1.4,0.4-1.9c0.3-0.5,0.7-1,1.2-1.2c0.5-0.3,1.2-0.4,1.9-0.4
	C186.2,18.5,187,18.9,187.6,19.5 M184.1,20.7c-0.2,0.3-0.3,0.8-0.3,1.5c0,0.7,0.1,1.2,0.3,1.5c0.2,0.3,0.5,0.5,1,0.5
	c0.4,0,0.8-0.2,1-0.5c0.2-0.3,0.3-0.8,0.3-1.5c0-0.7-0.1-1.2-0.3-1.5c-0.2-0.3-0.5-0.5-1-0.5C184.6,20.2,184.3,20.4,184.1,20.7"/>
<rect x="192" y="18.6" class="st0" width="2.2" height="7"/>
<polygon class="st0" points="204.3,20.3 202,20.3 202,25.7 199.9,25.7 199.9,20.3 197.6,20.3 197.6,18.6 204.3,18.6 "/>
<path class="st0" d="M213.8,19.5c0.6,0.6,0.9,1.5,0.9,2.7c0,1.1-0.3,2-0.9,2.7c-0.6,0.6-1.5,1-2.6,1c-0.7,0-1.3-0.1-1.9-0.4
	c-0.5-0.3-0.9-0.7-1.2-1.2c-0.3-0.5-0.4-1.2-0.4-1.9c0-0.8,0.1-1.4,0.4-1.9c0.3-0.5,0.7-1,1.2-1.2c0.5-0.3,1.2-0.4,1.9-0.4
	C212.3,18.5,213.2,18.9,213.8,19.5 M210.3,20.7c-0.2,0.3-0.3,0.8-0.3,1.5c0,0.7,0.1,1.2,0.3,1.5c0.2,0.3,0.5,0.5,1,0.5
	c0.4,0,0.8-0.2,1-0.5c0.2-0.3,0.3-0.8,0.3-1.5c0-0.7-0.1-1.2-0.3-1.5c-0.2-0.3-0.5-0.5-1-0.5C210.8,20.2,210.5,20.4,210.3,20.7"/>
<path class="st1" d="M100.5,43c0,2.8-0.8,5-2.4,6.5c-1.6,1.6-3.9,2.3-6.9,2.3c-2.8,0-4.9-0.6-6.3-1.9c-1.4-1.2-2.1-3-2.1-5.1
	c0-0.6,0.1-1.3,0.2-2.1l5.7-1c-0.1,0.8-0.2,1.5-0.2,2.1c0,1.2,0.2,2.1,0.7,2.7c0.5,0.5,1.2,0.8,2.2,0.8c1.2,0,2-0.4,2.5-1.2
	c0.5-0.8,0.8-2,0.8-3.7v-13h5.8V43z"/>
<path class="st1" d="M123.2,42.5c0,3.1-0.8,5.4-2.5,7c-1.7,1.6-4.1,2.3-7.4,2.3c-3.3,0-5.7-0.8-7.4-2.3c-1.7-1.6-2.5-3.9-2.5-7V29.4
	h5.8v13.2c0,1.6,0.3,2.8,1,3.5c0.7,0.8,1.7,1.2,3.1,1.2c2.8,0,4.1-1.6,4.1-4.7V29.4h5.7V42.5z"/>
<polygon class="st1" points="146,29.4 146,51.5 140.3,51.5 140.3,42.6 131.8,42.6 131.8,51.5 126.1,51.5 126.1,29.4 131.8,29.4 
	131.8,38.1 140.3,38.1 140.3,29.4 "/>
<path class="st1" d="M163.9,46.5h-7.6l-1.5,5h-5.8l7.8-22.1h6.9l7.7,22.1h-5.9L163.9,46.5z M162.7,42.6l-1.6-5.3l-1-3.5H160
	l-0.9,3.4l-1.7,5.3H162.7z"/>
<polygon class="st1" points="191,47 191,51.5 174.2,51.5 174.2,29.4 179.9,29.4 179.9,47 "/>
<path class="st1" d="M208.9,46.5h-7.6l-1.5,5h-5.8l7.8-22.1h6.9l7.7,22.1h-5.9L208.9,46.5z M207.7,42.6l-1.6-5.3l-1-3.5H205
	l-0.9,3.4l-1.7,5.3H207.7z"/>
<polygon class="st0" points="68.2,18.5 35.4,3.3 3,16.9 3.2,54.5 35.5,67.9 68.3,52.4 "/>
<polygon class="st2" points="64.8,50.5 58.3,53.3 58.3,39.8 51.2,40.6 51.2,56.3 37.7,62.1 37.7,8.3 51.2,14.1 51.2,29.6 58.3,30.4 
	58.3,17.1 64.8,19.9 "/>
<path class="st1" d="M35.4,3.3l32.8,15.3l0.1,33.8L35.5,67.9L3.2,54.5L3,16.9L35.4,3.3z M35.4,0l-1.2,0.5L1.8,14.2L0,14.9l0,2
	l0.2,37.6l0,2L2,57.3l32.4,13.3l1.2,0.5l1.2-0.6l32.8-15.5l1.7-0.8l0-1.9l-0.1-33.8l0-1.9l-1.7-0.8L36.6,0.6L35.4,0z"/>
<polygon class="st2" points="19.8,56.9 15,40.2 13.1,44.2 13.1,54.2 6.4,51.5 6.4,18.9 13.1,16.2 13.1,30.4 19.6,13.6 32.9,8.3 
	21.7,30.6 34.2,62.6 "/>
<rect y="0" class="st3" width="216.3" height="71.2"/>
</svg>
